﻿,Average,Min,Max
CO2,0.96,0.81,1.61
N2,0.74,0.67,1.3
CH4,93.16,90.73,93.84
C2H6,4.3,4.07,4.79
C3H8,0.57,0.43,1.1
i-C4H10,0.12,0.08,0.16
n-C4H10,0.09,0.07,0.17
i-C5H12,0.02,0.02,0.05
n-C5H12,0.01,0.01,0.04
C6H14,0.02,0.01,0.05
neo-C5H12,0.0028,0,0