﻿Technology,LP,MP,HP,EHP
BUS_CNG_STOICH,-0.3062,0,0,0
CAR_NG_LOCAL,-0.4826,0,0,0
CAR_NG_LONGD,-0.4826,0,0,0
CCGT,0,-1.5873,0,0
CCGT_CC,0,-1.91241,0,0
COACH_CNG_STOICH,-0.3062,0,0,0
DEC_BOILER_GAS,-1.0204,0,0,0
DEC_COGEN_GAS,-2.1739,0,0,0
DEC_THHP_GAS,-0.6667,0,0,0
DHN_BOILER_GAS,0,0,-1.0204,0
DHN_COGEN_GAS,0,0,-2,0
IND_BOILER_GAS,0,-1.0204,0,0
IND_COGEN_GAS,0,-2.1739,0,0
METHANE_TO_METHANOL,0,-1.52905,0,0
METHANOL_FT,0,-1.19048,0,0
SMR,0,-1.37,0,0
SNG_NG,0,1,0,0
TRUCK_SNG,-0.5126,0,0,0
EXP_EH,0,0,1,-1
EXP_HM,0,1,-1,0
EXP_ML,1,-1,0,0
EXP_EH_COGEN,0,0,1,-1
EXP_HM_COGEN,0,1,-1,0
EXP_ML_COGEN,1,-1,0,0